[{
  "_id": {
    "$oid": "5c930c012d72c48153491b41"
  },
  "long": "100.528",
  "lat": "13.85",
  "id": "WS000001",
  "__v": 0,
  "batt": "2.3",
  "info": "ตู้เย็นที่ 1",
  "timestamp": "2021-02-17T12:00:32.251+07:00",
  "stream": 0,
  "gps_count": 9,
  "tel": "0641902145",
  "tel_op": "true",
  "temp1": "31.02",
  "temp2": "4.97",
  "temp3": "-8.06",
  "temp4": "-8.06",
  "threshole_low1": "0",
  "threshole_upper1": "30",
  "threshole_low2": "1",
  "threshole_upper2": "31",
  "threshole_low3": "2",
  "threshole_upper3": "32",
  "threshole_low4": "3",
  "threshole_upper4": "33"
}]